{
  "name": "szene3",
  "contact": [
    {
      "icon": "website",
      "label": {
        "_": "szene3 Website"
      },
      "url": "https://szene3.amiv.ethz.ch/"
    },
    {
      "icon": "instagram",
      "label": {
        "_": "szene.3"
      },
      "url": "https://instagram.com/szene.3?r=nametag"
    },
    {
      "icon": "email",
      "label": {
        "_": "szene3@amiv.ethz.ch"
      },
      "url": "mailto:szene3@amiv.ethz.ch"
    }
  ],
  "description": {
    "en": "szene3 is amiv's theater group. We rely on the creative minds of our members: we do the directing, acting, make-up, stage design and everything else that goes with a theater production ourselves.\n\nThe plays we play are primarily comedies with depth. We stage close to the text and give great importance to giving the actors the greatest possible creative freedom. In past projects we have worked on pieces by Wilde, Dürrenmatt and Horváth.\n\nAt the beginning of the fall semester, we start a new project and are always looking for committed students who are interested in acting and would like to participate. We meet once a week in the theater at Irchel University to rehearse and we perform in spring. The plays are all in german.",
    "de": "Die szene3 ist die Theaterkommission des amiv. Wir setzen auf die kreativen Köpfe unserer Mitglieder: Regie, Schauspiel, Maske, Bühnenbild und alles Weitere, was zu einer Theaterproduktion gehört, machen wir selbst.\n\nDie Stücke, die wir spielen, sind vor allem Komödien mit Tiefgang. Wir inszenieren textnah und legen Wert darauf, den Schauspielenden grösstmögliche Gestaltungsfreiheiten zu lassen. So haben wir in vergangenen Projekten Stücke von Wilde, Dürrenmatt und Horváth erarbeitet.\n\nMit Beginn des Herbstsemesters starten wir jeweils ein neues Projekt und suchen immer schauspielbegeisterte und engagierte Studierende, welche dabei mitwirken möchten. Wir treffen uns einmal wöchentlich im Theatersaal der Uni Irchel, um zu proben und führen jeweils im Frühling auf."
  }
}
