{
  "members": [
    {
      "role": "president",
      "name": "Mohammed Khouni"
    },
    {
      "role": "quaestor",
      "name": "Aldo Tobler"
    },
    {
      "role": "it",
      "name": "Igor Susmelj"
    },
    {
      "role": "information",
      "name": "Julian Huwyler"
    },
    {
      "role": "eventPlanning",
      "name": "Aurel Neff"
    },
    {
      "role": "eventPlanning",
      "name": "Nepheli Papagiannakopoulou Zwicky-Zwicky"
    },
    {
      "role": "universityPolicyItet",
      "name": "Bigna Härdi"
    },
    {
      "role": "universityPolicyMavt",
      "name": "Dimitri Eckert"
    },
    {
      "role": "externalRelations",
      "name": "Giovanni Cavolina"
    },
    {
      "role": "externalRelations",
      "name": "Théophile Messin-Roizard"
    },
    {
      "role": "infrastructure",
      "name": "Luca (Ran)Dahle"
    }
  ]
}
