{
  "members": [
    {
      "role": "president",
      "name": "Antonia Mosberger"
    },
    {
      "role": "quaestor",
      "name": "Luzian Bieri"
    },
    {
      "role": "it",
      "name": "Sandro Lutz"
    },
    {
      "role": "information",
      "name": "Patricia Schmid"
    },
    {
      "role": "eventPlanning",
      "name": "Lina Gehri"
    },
    {
      "role": "eventPlanning",
      "name": "Betty Lory"
    },
    {
      "role": "eventPlanning",
      "name": "Ian Boschung"
    },
    {
      "role": "universityPolicyItet",
      "name": "Daniel Biek"
    },
    {
      "role": "universityPolicyMavt",
      "name": "Julia Jäggi"
    },
    {
      "role": "externalRelations",
      "name": "Silvio Geel"
    },
    {
      "role": "externalRelations",
      "name": "Marie Matos"
    },
    {
      "role": "infrastructure",
      "name": "Lukas Eberle"
    }
  ]
}
