{
  "name": "<example name>",
  "contact": [
    {
      "icon": "email",
      "label": {
        "de": "<some label in german>",
        "en": "<some label in english>",
        "_": "<some label independent of the language>"
      },
      "url": "mailto:<some email address>"
    },
    {
      "icon": "phone",
      "label": {
        "de": "<some label in german>",
        "en": "<some label in english>",
        "_": "<some label independent of the language>"
      },
      "url": "tel:<some phone number>"
    }
  ],
  "description": {
    "en": "<description in english>",
    "de": "<description in german>"
  }
}
